A3/open_source_flow/async_sar.vcd
$date
	Fri Apr  3 12:36:49 2026
$end
$version
	Icarus Verilog
$end
$timescale
	1ps
$end
$scope module tb_async_sar $end
$var wire 5 ! trial_code [4:0] $end
$var wire 5 " final_code [4:0] $end
$var wire 1 # done $end
$var wire 1 $ comp_valid $end
$var wire 32 % comp_delay_ps [31:0] $end
$var wire 1 & comp $end
$var wire 1 ' active $end
$var parameter 32 ( INPUT_BIN $end
$var real 1 ) INPUT_PEAK_FRAC $end
$var real 1 * LSB $end
$var parameter 32 + N_BITS $end
$var parameter 32 , N_SAMPLES $end
$var real 1 - PI $end
$var parameter 32 . SAMPLE_PERIOD_PS $end
$var parameter 32 / START_WIDTH_PS $end
$var real 1 0 VCM $end
$var real 1 1 VFS $end
$var reg 1 2 start $end
$var integer 32 3 code_fd [31:0] $end
$var integer 32 4 decision_count [31:0] $end
$var integer 32 5 sample_idx [31:0] $end
$var integer 32 6 vcd_sample_limit [31:0] $end
$var real 1 7 vdac_trial $end
$var real 1 8 vin_sample $end
$scope module dut $end
$var wire 1 2 start $end
$var wire 1 $ comp_valid $end
$var wire 1 & comp $end
$var reg 1 ' active $end
$var reg 5 9 committed_code [4:0] $end
$var reg 1 # done $end
$var reg 5 : final_code [4:0] $end
$var reg 5 ; next_code [4:0] $end
$var reg 5 < trial_code [4:0] $end
$var integer 32 = bit_idx [31:0] $end
$upscope $end
$scope module strongarm_cmp $end
$var wire 1 2 start $end
$var wire 5 > trial_code [4:0] $end
$var real 1 ? DV_FLOOR_V $end
$var real 1 @ INPUT_OFFSET_V $end
$var parameter 32 A N_BITS $end
$var real 1 B T_CMP_MAX_PS $end
$var real 1 C T_CMP_MIN_PS $end
$var real 1 D T_CMP_NOM_PS $end
$var real 1 E VCM $end
$var real 1 F VFS $end
$var reg 1 & comp $end
$var reg 1 $ comp_valid $end
$var reg 32 G delay_ps [31:0] $end
$var real 1 H dv_ref_v $end
$var real 1 I vin_sample $end
$scope begin $unm_blk_17 $end
$var reg 1 J comp_result $end
$var integer 32 K local_delay_ps [31:0] $end
$var real 1 L overdrive_v $end
$var real 1 M scaled_delay_ps $end
$var real 1 N vdac_trial $end
$var real 1 O vin_eff $end
$upscope $end
$upscope $end
$scope task start_conversion $end
$var integer 32 P idx [31:0] $end
$var real 1 Q sample_phase $end
$upscope $end
$upscope $end
$enddefinitions $end
$comment Show the parameter values. $end
$dumpall
r0.45 F
r0.7 E
r124 D
r60 C
r250 B
b101 A
r0 @
r0.001 ?
r0.45 1
r0.7 0
b10100 /
b11111010000 .
r3.141592653589793 -
b10000000000 ,
b101 +
r0.0140625 *
r0.95 )
b100101 (
$end
#0
$dumpvars
r0 Q
b0 P
r0.7 O
r0.7 N
r250 M
r0.001 L
b11111010 K
1J
r0.7 I
r0.00703125 H
b11111010 G
b10000 >
b100 =
b10000 <
bx ;
b0 :
b0 9
r0.7 8
r0.7 7
b1100 6
b0 5
b0 4
b10000000000000000000000000000011 3
12
1'
0&
b11111010 %
0$
0#
b0 "
b10000 !
$end
#20
02
#60
b111100 %
b111100 G
0J
b111100 K
r60 M
r0.1125 L
r0.8125 N
r0.8125 7
b11000 !
b11000 <
b11000 >
b11 =
b10000 9
b10000 ;
b11111010 4
1$
1&
#61
0$
#120
r60 M
r0.05625000000000002 L
r0.75625 N
r0.75625 7
b100110110 4
b10100 !
b10100 <
b10100 >
b10 =
1$
0&
#121
0$
#180
r60 M
r0.02812499999999996 L
r0.7281249999999999 N
r0.7281249999999999 7
b10010 !
b10010 <
b10010 >
b1 =
b101110010 4
1$
#181
0$
#240
b111101 %
b111101 G
b111101 K
r61.99999999999961 M
r0.01406250000000009 L
r0.7140625 N
r0.7140625 7
b110101110 4
b10001 !
b10001 <
b10001 >
b0 =
1$
#241
0$
#250
b11111010 %
b11111010 G
1J
b11111010 K
r250 M
r0.001 L
r0.7 N
r0.7 7
1#
0'
b10000 !
b10000 <
b10000 >
b10000 "
b10000 :
b111101011 4
1$
#251
0$
#301
b1011100101 4
1$
1&
#302
0$
#500
b1111011111 4
1$
#501
0$
#1739
b0 "
b0 :
b0 9
b100 =
0#
1'
b111100 %
b111100 G
b111100 K
r60 M
r0.04811168605315574 L
r0.7481116860531557 O
12
b0 4
r0.7481116860531557 8
r0.7481116860531557 I
r0.2270291566070749 Q
b1 P
b1 5
#1759
02
#1799
0J
r60 M
r0.0643883139468443 L
r0.8125 N
r0.8125 7
b111100 4
b11000 !
b11000 <
b11000 >
b11 =
b10000 9
b10000 ;
1$
#1800
0$
#1859
b1101011 %
b1101011 G
b1101011 K
r107.1321413372212 M
r0.008138313946844278 L
r0.75625 N
r0.75625 7
b10100 !
b10100 <
b10100 >
b10 =
b1111000 4
1$
0&
#1860
0$
#1966
b111100 %
b111100 G
1J
b111100 K
r60 M
r0.01998668605315579 L
r0.7281249999999999 N
r0.7281249999999999 7
b11100011 4
b10010 !
b10010 <
b10010 >
b1 =
1$
#1967
0$
#2026
b10010011 %
b10010011 G
b10010011 K
r147.1721165029192 M
r0.0059241860531557 L
r0.7421875 N
r0.7421875 7
b10011 !
b10011 <
b10011 >
b0 =
b10010 9
b10010 ;
b100011111 4
1$
1&
#2027
0$
#2173
b110110010 4
1#
0'
b10011 "
b10011 :
b10011 9
b10011 ;
1$
#2174
0$
#3719
r0.7 N
r0.7 7
b0 "
b0 :
b10000 !
b10000 <
b10000 >
b0 9
b100 =
0#
1'
b111100 %
b111100 G
b111100 K
r60 M
r0.09375422098761033 L
r0.7937542209876103 O
12
b0 4
r0.7937542209876103 8
r0.7937542209876103 I
r0.4540583132141498 Q
b10 P
b10 5
#3739
02
#3779
0J
r60 M
r0.01874577901238972 L
r0.8125 N
r0.8125 7
b11000 !
b11000 <
b11000 >
b11 =
b10000 9
b10000 ;
b111100 4
1$
#3780
0$
#3839
1J
r60 M
r0.0375042209876103 L
r0.75625 N
r0.75625 7
b1111000 4
b10100 !
b10100 <
b10100 >
b10 =
1$
0&
#3840
0$
#3899
b1011100 %
b1011100 G
b1011100 K
r92.95814664690484 M
r0.009379220987610237 L
r0.784375 N
r0.784375 7
b10110 !
b10110 <
b10110 >
b1 =
b10100 9
b10100 ;
b10110100 4
1$
1&
#3900
0$
#3991
b10111010 %
b10111010 G
0J
b10111010 K
r186.1676397441732 M
r0.00468327901238963 L
r0.7984374999999999 N
r0.7984374999999999 7
b100010000 4
b10111 !
b10111 <
b10111 >
b0 =
b10110 9
b10110 ;
1$
#3992
0$
#4177
b1011100 %
b1011100 G
1J
b1011100 K
r92.95814664690484 M
r0.009379220987610237 L
r0.784375 N
r0.784375 7
1#
0'
b10110 !
b10110 <
b10110 >
b10110 "
b10110 :
b111001010 4
1$
0&
#4178
0$
#4269
b1000100110 4
1$
1&
#4270
0$
#5699
r0.7 N
r0.7 7
b0 "
b0 :
b10000 !
b10000 <
b10000 >
b0 9
b100 =
0#
1'
b111100 %
b111100 G
b111100 K
r60 M
r0.1345851735680657 L
r0.8345851735680656 O
12
b0 4
r0.8345851735680656 8
r0.8345851735680656 I
r0.6810874698212247 Q
b11 P
b11 5
#5719
02
#5759
r60 M
r0.02208517356806561 L
r0.8125 N
r0.8125 7
b11000 !
b11000 <
b11000 >
b11 =
b10000 9
b10000 ;
b111100 4
1$
#5760
0$
#5819
0J
r60 M
r0.0341648264319343 L
r0.8687499999999999 N
r0.8687499999999999 7
b1111000 4
b11100 !
b11100 <
b11100 >
b10 =
b11000 9
b11000 ;
1$
#5820
0$
#5879
b10010000 %
b10010000 G
b10010000 K
r144.3543137912274 M
r0.006039826431934348 L
r0.840625 N
r0.840625 7
b11010 !
b11010 <
b11010 >
b1 =
b10110100 4
1$
0&
#5880
0$
#6023
b1101100 %
b1101100 G
1J
b1101100 K
r108.6763648804697 M
r0.00802267356806563 L
r0.8265625 N
r0.8265625 7
b101000100 4
b11001 !
b11001 <
b11001 >
b0 =
1$
#6024
0$
#6131
1#
0'
b11001 "
b11001 :
b11001 9
b11001 ;
b110110000 4
1$
1&
#6132
0$
#7679
r0.7 N
r0.7 7
b0 "
b0 :
b10000 !
b10000 <
b10000 >
b0 9
b100 =
0#
1'
b111100 %
b111100 G
b111100 K
r60 M
r0.168509048905187 L
r0.868509048905187 O
12
b0 4
r0.868509048905187 8
r0.868509048905187 I
r0.9081166264282996 Q
b100 P
b100 5
#7699
02
#7739
r60 M
r0.05600904890518699 L
r0.8125 N
r0.8125 7
b111100 4
b11000 !
b11000 <
b11000 >
b11 =
b10000 9
b10000 ;
1$
#7740
0$
#7799
b11111010 %
b11111010 G
0J
b11111010 K
r250 M
r0.001 L
r0.8687499999999999 N
r0.8687499999999999 7
b11100 !
b11100 <
b11100 >
b10 =
b11000 9
b11000 ;
b1111000 4
1$
#7800
0$
#8049
b111100 %
b111100 G
1J
b111100 K
r60 M
r0.02788404890518703 L
r0.840625 N
r0.840625 7
b101110010 4
b11010 !
b11010 <
b11010 >
b1 =
1$
0&
#8050
0$
#8109
b111111 %
b111111 G
b111111 K
r63.0808461469035 M
r0.01382154890518694 L
r0.8546875 N
r0.8546875 7
b11011 !
b11011 <
b11011 >
b0 =
b11010 9
b11010 ;
b110101110 4
1$
1&
#8110
0$
#8172
b111101101 4
1#
0'
b11011 "
b11011 :
b11011 9
b11011 ;
1$
#8173
0$
#9659
r0.7 N
r0.7 7
b0 "
b0 :
b10000 !
b10000 <
b10000 >
b0 9
b100 =
0#
1'
b111100 %
b111100 G
b111100 K
r60 M
r0.1937848318400631 L
r0.8937848318400631 O
12
b0 4
r0.8937848318400631 8
r0.8937848318400631 I
r1.135145783035374 Q
b101 P
b101 5
#9679
02
#9719
r60 M
r0.08128483184006308 L
r0.8125 N
r0.8125 7
b11000 !
b11000 <
b11000 >
b11 =
b10000 9
b10000 ;
b111100 4
1$
#9720
0$
#9779
r60 M
r0.02503483184006317 L
r0.8687499999999999 N
r0.8687499999999999 7
b1111000 4
b11100 !
b11100 <
b11100 >
b10 =
b11000 9
b11000 ;
1$
#9780
0$
#9839
b11111010 %
b11111010 G
0J
b11111010 K
r250 M
r0.003090168159936901 L
r0.896875 N
r0.896875 7
b11110 !
b11110 <
b11110 >
b1 =
b11100 9
b11100 ;
b10110100 4
1$
#9840
0$
#10089
b1001111 %
b1001111 G
1J
b1001111 K
r79.46123146007474 M
r0.01097233184006308 L
r0.8828125 N
r0.8828125 7
b110101110 4
b11101 !
b11101 <
b11101 >
b0 =
1$
0&
#10090
0$
#10168
1#
0'
b11101 "
b11101 :
b11101 9
b11101 ;
b111111101 4
1$
1&
#10169
0$
#11639
r0.7 N
r0.7 7
b0 "
b0 :
b10000 !
b10000 <
b10000 >
b0 9
b100 =
0#
1'
b111100 %
b111100 G
b111100 K
r60 M
r0.2091153379913204 L
r0.9091153379913204 O
12
b0 4
r0.9091153379913204 8
r0.9091153379913204 I
r1.362174939642449 Q
b110 P
b110 5
#11659
02
#11699
r60 M
r0.09661533799132038 L
r0.8125 N
r0.8125 7
b111100 4
b11000 !
b11000 <
b11000 >
b11 =
b10000 9
b10000 ;
1$
#11700
0$
#11759
r60 M
r0.04036533799132047 L
r0.8687499999999999 N
r0.8687499999999999 7
b11100 !
b11100 <
b11100 >
b10 =
b11000 9
b11000 ;
b1111000 4
1$
#11760
0$
#11819
b1000111 %
b1000111 G
b1000111 K
r71.22965073499151 M
r0.0122403379913204 L
r0.896875 N
r0.896875 7
b10110100 4
b11110 !
b11110 <
b11110 >
b1 =
b11100 9
b11100 ;
1$
#11820
0$
#11890
b11111010 %
b11111010 G
0J
b11111010 K
r250 M
r0.001822162008679573 L
r0.9109375 N
r0.9109375 7
b11111 !
b11111 <
b11111 >
b0 =
b11110 9
b11110 ;
b11111011 4
1$
#11891
0$
#12140
b1000111 %
b1000111 G
1J
b1000111 K
r71.22965073499151 M
r0.0122403379913204 L
r0.896875 N
r0.896875 7
b111110101 4
1#
0'
b11110 !
b11110 <
b11110 >
b11110 "
b11110 :
1$
0&
#12141
0$
#12211
b1000111100 4
1$
1&
#12212
0$
#13619
r0.7 N
r0.7 7
b0 "
b0 :
b10000 !
b10000 <
b10000 >
b0 9
b100 =
0#
1'
b111100 %
b111100 G
b111100 K
r60 M
r0.2137137868588572 L
r0.9137137868588572 O
12
b0 4
r0.9137137868588572 8
r0.9137137868588572 I
r1.589204096249524 Q
b111 P
b111 5
#13639
02
#13679
r60 M
r0.1012137868588572 L
r0.8125 N
r0.8125 7
b111100 4
b11000 !
b11000 <
b11000 >
b11 =
b10000 9
b10000 ;
1$
#13680
0$
#13739
r60 M
r0.04496378685885727 L
r0.8687499999999999 N
r0.8687499999999999 7
b11100 !
b11100 <
b11100 >
b10 =
b11000 9
b11000 ;
b1111000 4
1$
#13740
0$
#13799
r60 M
r0.0168387868588572 L
r0.896875 N
r0.896875 7
b10110100 4
b11110 !
b11110 <
b11110 >
b1 =
b11100 9
b11100 ;
1$
#13800
0$
#13859
b11111010 %
b11111010 G
b11111010 K
r250 M
r0.002776286858857224 L
r0.9109375 N
r0.9109375 7
b11111 !
b11111 <
b11111 >
b0 =
b11110 9
b11110 ;
b11110000 4
1$
#13860
0$
#14109
b111101010 4
1#
0'
b11111 "
b11111 :
b11111 9
b11111 ;
1$
#14110
0$
#15599
r0.7 N
r0.7 7
b0 "
b0 :
b10000 !
b10000 <
b10000 >
b0 9
b100 =
0#
1'
b111100 %
b111100 G
1J
b111100 K
r60 M
r0.2073441803703338 L
r0.9073441803703337 O
12
b0 4
r0.9073441803703337 8
r0.9073441803703337 I
r1.816233252856599 Q
b1000 P
b1000 5
#15619
02
#15659
r60 M
r0.09484418037033371 L
r0.8125 N
r0.8125 7
b11000 !
b11000 <
b11000 >
b11 =
b10000 9
b10000 ;
b111100 4
1$
#15660
0$
#15719
r60 M
r0.0385941803703338 L
r0.8687499999999999 N
r0.8687499999999999 7
b1111000 4
b11100 !
b11100 <
b11100 >
b10 =
b11000 9
b11000 ;
1$
#15720
0$
#15779
b1010011 %
b1010011 G
b1010011 K
r83.28015844206979 M
r0.01046918037033373 L
r0.896875 N
r0.896875 7
b11110 !
b11110 <
b11110 >
b1 =
b11100 9
b11100 ;
b10110100 4
1$
#15780
0$
#15841
b11110010 %
b11110010 G
0J
b11110010 K
r242.6377527904416 M
r0.003593319629666247 L
r0.9109375 N
r0.9109375 7
b100000111 4
b11111 !
b11111 <
b11111 >
b0 =
b11110 9
b11110 ;
1$
#15842
0$
#15862
b1010011 %
b1010011 G
1J
b1010011 K
r83.28015844206979 M
r0.01046918037033373 L
r0.896875 N
r0.896875 7
1#
0'
b11110 !
b11110 <
b11110 >
b11110 "
b11110 :
b111111001 4
1$
0&
#15863
0$
#15945
b1001001100 4
1$
1&
#15946
0$
#16083
b1010011111 4
1$
#16084
0$
#17337
r0.7 N
r0.7 7
b0 "
b0 :
b10000 !
b10000 <
b10000 >
b0 9
b100 =
0#
1'
b111100 %
b111100 G
1J
b111100 K
r60 M
r0.190333414593567 L
r0.890333414593567 O
12
b0 4
r0.890333414593567 8
r0.890333414593567 I
r2.043262409463674 Q
b1001 P
b1001 5
#17357
02
#17397
r60 M
r0.07783341459356696 L
r0.8125 N
r0.8125 7
b111100 4
b11000 !
b11000 <
b11000 >
b11 =
b10000 9
b10000 ;
1$
#17398
0$
#17457
r60 M
r0.02158341459356705 L
r0.8687499999999999 N
r0.8687499999999999 7
b11100 !
b11100 <
b11100 >
b10 =
b11000 9
b11000 ;
b1111000 4
1$
#17458
0$
#17470
b10000101 %
b10000101 G
0J
b10000101 K
r133.2819103978365 M
r0.006541585406433015 L
r0.896875 N
r0.896875 7
b10110100 4
b11110 !
b11110 <
b11110 >
b1 =
b11100 9
b11100 ;
1$
#17471
0$
#17517
b1110011 %
b1110011 G
1J
b1110011 K
r115.9267252876081 M
r0.007520914593566963 L
r0.8828125 N
r0.8828125 7
b11101 !
b11101 <
b11101 >
b0 =
b100111001 4
1$
0&
#17518
0$
#17603
b110101100 4
1#
0'
b11101 "
b11101 :
b11101 9
b11101 ;
1$
1&
#17604
0$
#17632
b1000011111 4
1$
#17633
0$
#19155
r0.7 N
r0.7 7
b0 "
b0 :
b10000 !
b10000 <
b10000 >
b0 9
b100 =
0#
1'
b111100 %
b111100 G
1J
b111100 K
r60 M
r0.1635545030268006 L
r0.8635545030268006 O
12
b0 4
r0.8635545030268006 8
r0.8635545030268006 I
r2.270291566070749 Q
b1010 P
b1010 5
#19175
02
#19215
r60 M
r0.05105450302680059 L
r0.8125 N
r0.8125 7
b111100 4
b11000 !
b11000 <
b11000 >
b11 =
b10000 9
b10000 ;
1$
#19216
0$
#19275
b10100111 %
b10100111 G
0J
b10100111 K
r167.81359021043 M
r0.005195496973199321 L
r0.8687499999999999 N
r0.8687499999999999 7
b11100 !
b11100 <
b11100 >
b10 =
b11000 9
b11000 ;
b1111000 4
1$
#19276
0$
#19442
b111100 %
b111100 G
1J
b111100 K
r60 M
r0.02292950302680064 L
r0.840625 N
r0.840625 7
b100011111 4
b11010 !
b11010 <
b11010 >
b1 =
1$
0&
#19443
0$
#19502
b1100010 %
b1100010 G
b1100010 K
r98.32803680846335 M
r0.008867003026800546 L
r0.8546875 N
r0.8546875 7
b11011 !
b11011 <
b11011 >
b0 =
b11010 9
b11010 ;
b101011011 4
1$
1&
#19503
0$
#19600
b110111101 4
1#
0'
b11011 "
b11011 :
b11011 9
b11011 ;
1$
#19601
0$
#21135
r0.7 N
r0.7 7
b0 "
b0 :
b10000 !
b10000 <
b10000 >
b0 9
b100 =
0#
1'
b111100 %
b111100 G
1J
b111100 K
r60 M
r0.128381772468302 L
r0.8283817724683019 O
12
b0 4
r0.8283817724683019 8
r0.8283817724683019 I
r2.497320722677824 Q
b1011 P
b1011 5
#21155
02
#21195
r60 M
r0.01588177246830191 L
r0.8125 N
r0.8125 7
b11000 !
b11000 <
b11000 >
b11 =
b10000 9
b10000 ;
b111100 4
1$
#21196
0$
#21255
0J
r60 M
r0.040368227531698 L
r0.8687499999999999 N
r0.8687499999999999 7
b1111000 4
b11100 !
b11100 <
b11100 >
b10 =
b11000 9
b11000 ;
1$
#21256
0$
#21315
b1000111 %
b1000111 G
b1000111 K
r71.2128397305933 M
r0.01224322753169804 L
r0.840625 N
r0.840625 7
b11010 !
b11010 <
b11010 >
b1 =
b10110100 4
1$
0&
#21316
0$
#21386
b11111010 %
b11111010 G
1J
b11111010 K
r250 M
r0.001819272468301936 L
r0.8265625 N
r0.8265625 7
b11111011 4
b11001 !
b11001 <
b11001 >
b0 =
1$
#21387
0$
#21636
1#
0'
b11001 "
b11001 :
b11001 9
b11001 ;
b111110101 4
1$
1&
#21637
0$
#23115
r0.7 N
r0.7 7
b0 "
b0 :
b10000 !
b10000 <
b10000 >
b0 9
b100 =
0#
1'
b111100 %
b111100 G
1J
b111100 K
r60 M
r0.08662033086856658 L
r0.7866203308685665 O
12
b0 4
r0.7866203308685665 8
r0.7866203308685665 I
r2.724349879284899 Q
b1100 P
b1100 5
#23135
02
#23175
0J
r60 M
r0.02587966913143347 L
r0.8125 N
r0.8125 7
b111100 4
b11000 !
b11000 <
b11000 >
b11 =
b10000 9
b10000 ;
1$
#23176
0$
#23235
1J
r60 M
r0.03037033086856655 L
r0.75625 N
r0.75625 7
b10100 !
b10100 <
b10100 >
b10 =
b1111000 4
1$
0&
#23236
0$
#23295
b11111010 %
b11111010 G
b11111010 K
r250 M
r0.002245330868566486 L
r0.784375 N
r0.784375 7
b10110100 4
b10110 !
b10110 <
b10110 >
b1 =
b10100 9
b10100 ;
1$
1&
#23296
0$
#23545
b1001001 %
b1001001 G
0J
b1001001 K
r73.78036061791093 M
r0.01181716913143338 L
r0.7984374999999999 N
r0.7984374999999999 7
b10111 !
b10111 <
b10111 >
b0 =
b10110 9
b10110 ;
b110101110 4
1$
#23546
0$
#23618
b11111010 %
b11111010 G
1J
b11111010 K
r250 M
r0.002245330868566486 L
r0.784375 N
r0.784375 7
b111110111 4
1#
0'
b10110 !
b10110 <
b10110 >
b10110 "
b10110 :
1$
0&
#23619
0$
#23868
b1011110001 4
1$
1&
#23869
0$
#25095
r0.7 N
r0.7 7
b0 "
b0 :
b10000 !
b10000 <
b10000 >
b0 9
b100 =
0#
1'
b111100 %
b111100 G
1J
b111100 K
r60 M
r0.0404134269620211 L
r0.7404134269620211 O
12
b0 4
r0.7404134269620211 8
r0.7404134269620211 I
r2.951379035891974 Q
b1101 P
b1101 5
#25115
02
#25155
0J
r60 M
r0.07208657303797894 L
r0.8125 N
r0.8125 7
b111100 4
b11000 !
b11000 <
b11000 >
b11 =
b10000 9
b10000 ;
1$
#25156
0$
#25215
r60 M
r0.01583657303797892 L
r0.75625 N
r0.75625 7
b10100 !
b10100 <
b10100 >
b10 =
b1111000 4
1$
0&
#25216
0$
#25275
b1000110 %
b1000110 G
1J
b1000110 K
r70.95090386219765 M
r0.01228842696202115 L
r0.7281249999999999 N
r0.7281249999999999 7
b10110100 4
b10010 !
b10010 <
b10010 >
b1 =
1$
#25276
0$
#25345
b11111010 %
b11111010 G
0J
b11111010 K
r250 M
r0.00177407303797894 L
r0.7421875 N
r0.7421875 7
b10011 !
b10011 <
b10011 >
b0 =
b10010 9
b10010 ;
b11111010 4
1$
1&
#25346
0$
#25595
b1000110 %
b1000110 G
1J
b1000110 K
r70.95090386219765 M
r0.01228842696202115 L
r0.7281249999999999 N
r0.7281249999999999 7
b111110100 4
1#
0'
b10010 !
b10010 <
b10010 >
b10010 "
b10010 :
1$
0&
#25596
0$
#25665
b1000111010 4
1$
1&
#25666
0$
#27075
r0.7 N
r0.7 7
b0 "
b0 :
b10000 !
b10000 <
b10000 >
b0 9
b100 =
0#
1'
b1101110 %
b1101110 G
0J
b1101110 K
r110.8192099936366 M
r0.007867543903715468 L
r0.6921324560962845 O
12
b0 4
r0.6921324560962845 8
r0.6921324560962845 I
r3.178408192499049 Q
b1110 P
b1110 5
#27095
02
#27135
b111100 %
b111100 G
1J
b111100 K
r60 M
r0.1046324560962845 L
r0.5875 N
r0.5875 7
b1101110 4
b1000 !
b1000 <
b1000 >
b11 =
b0 ;
1$
0&
#27136
0$
#27185
r60 M
r0.04838245609628444 L
r0.64375 N
r0.64375 7
b1100 !
b1100 <
b1100 >
b10 =
b1000 9
b1000 ;
b10101010 4
1$
1&
#27186
0$
#27195
r60 M
r0.02025745609628449 L
r0.671875 N
r0.671875 7
b11100110 4
b1110 !
b1110 <
b1110 >
b1 =
b1100 9
b1100 ;
1$
#27196
0$
#27245
b10001100 %
b10001100 G
b10001100 K
r140.7394962044874 M
r0.00619495609628451 L
r0.6859375 N
r0.6859375 7
b1111 !
b1111 <
b1111 >
b0 =
b1110 9
b1110 ;
b100100010 4
1$
#27246
0$
#27255
b110101110 4
1#
0'
b1111 "
b1111 :
b1111 9
b1111 ;
1$
#27256
0$
#27385
b1000111010 4
1$
#27386
0$
#28805
r0.7 N
r0.7 7
b0 "
b0 :
b10000 !
b10000 <
b10000 >
b0 9
b100 =
0#
1'
b111100 %
b111100 G
0J
b111100 K
r60 M
r0.05574474270439012 L
r0.6442552572956098 O
12
b0 4
r0.6442552572956098 8
r0.6442552572956098 I
r3.405437349106124 Q
b1111 P
b1111 5
#28825
02
#28865
1J
r60 M
r0.05675525729560982 L
r0.5875 N
r0.5875 7
b111100 4
b1000 !
b1000 <
b1000 >
b11 =
b0 ;
1$
0&
#28866
0$
#28925
b11111010 %
b11111010 G
b11111010 K
r250 M
r0.001 L
r0.64375 N
r0.64375 7
b1100 !
b1100 <
b1100 >
b10 =
b1000 9
b1000 ;
b1111000 4
1$
1&
#28926
0$
#29175
b111100 %
b111100 G
0J
b111100 K
r60 M
r0.02761974270439016 L
r0.671875 N
r0.671875 7
b101110010 4
b1110 !
b1110 <
b1110 >
b1 =
b1100 9
b1100 ;
1$
#29176
0$
#29235
b1000000 %
b1000000 G
b1000000 K
r64.31064332260308 M
r0.01355724270439018 L
r0.6578125 N
r0.6578125 7
b1101 !
b1101 <
b1101 >
b0 =
b110101110 4
1$
0&
#29236
0$
#29299
b11111010 %
b11111010 G
1J
b11111010 K
r250 M
r0.001 L
r0.64375 N
r0.64375 7
b111101110 4
1#
0'
b1100 !
b1100 <
b1100 >
b1100 "
b1100 :
1$
#29300
0$
#29549
b1011101000 4
1$
1&
#29550
0$
#30785
r0.7 N
r0.7 7
b0 "
b0 :
b10000 !
b10000 <
b10000 >
b0 9
b100 =
0#
1'
b111100 %
b111100 G
0J
b111100 K
r60 M
r0.100761052496557 L
r0.599238947503443 O
12
b0 4
r0.599238947503443 8
r0.599238947503443 I
r3.632466505713198 Q
b10000 P
b10000 5
#30805
02
#30845
b1001010 %
b1001010 G
1J
b1001010 K
r74.27199071673887 M
r0.01173894750344295 L
r0.5875 N
r0.5875 7
b111100 4
b1000 !
b1000 <
b1000 >
b11 =
b0 ;
1$
0&
#30846
0$
#30919
b111100 %
b111100 G
0J
b111100 K
r60 M
r0.04451105249655707 L
r0.64375 N
r0.64375 7
b1100 !
b1100 <
b1100 >
b10 =
b1000 9
b1000 ;
b10000110 4
1$
1&
#30920
0$
#30979
r60 M
r0.016386052496557 L
r0.615625 N
r0.615625 7
b11000010 4
b1010 !
b1010 <
b1010 >
b1 =
1$
0&
#30980
0$
#31039
b11111010 %
b11111010 G
b11111010 K
r250 M
r0.002323552496557024 L
r0.6015625 N
r0.6015625 7
b1001 !
b1001 <
b1001 >
b0 =
b11111110 4
1$
#31040
0$
#31289
b1001010 %
b1001010 G
1J
b1001010 K
r74.27199071673887 M
r0.01173894750344295 L
r0.5875 N
r0.5875 7
b111111000 4
1#
0'
b1000 !
b1000 <
b1000 >
b1000 "
b1000 :
1$
#31290
0$
#31363
b1001000010 4
1$
1&
#31364
0$
#32765
r0.7 N
r0.7 7
b0 "
b0 :
b10000 !
b10000 <
b10000 >
b0 9
b100 =
0#
1'
b111100 %
b111100 G
0J
b111100 K
r60 M
r0.1406061806922505 L
r0.5593938193077495 O
12
b0 4
r0.5593938193077495 8
r0.5593938193077495 I
r3.859495662320273 Q
b10001 P
b10001 5
#32785
02
#32825
r60 M
r0.02810618069225057 L
r0.5875 N
r0.5875 7
b111100 4
b1000 !
b1000 <
b1000 >
b11 =
b0 ;
1$
0&
#32826
0$
#32885
1J
r60 M
r0.02814381930774945 L
r0.53125 N
r0.53125 7
b100 !
b100 <
b100 >
b10 =
b1111000 4
1$
#32886
0$
#32945
b11111010 %
b11111010 G
b11111010 K
r250 M
r0.001 L
r0.559375 N
r0.559375 7
b10110100 4
b110 !
b110 <
b110 >
b1 =
b100 9
b100 ;
1$
1&
#32946
0$
#33195
b111110 %
b111110 G
0J
b111110 K
r62.08308342421328 M
r0.01404368069225048 L
r0.5734374999999999 N
r0.5734374999999999 7
b111 !
b111 <
b111 >
b0 =
b110 9
b110 ;
b110101110 4
1$
#33196
0$
#33257
b11111010 %
b11111010 G
1J
b11111010 K
r250 M
r0.001 L
r0.559375 N
r0.559375 7
b111101100 4
1#
0'
b110 !
b110 <
b110 >
b110 "
b110 :
1$
0&
#33258
0$
#33507
b1011100110 4
1$
1&
#33508
0$
#34745
r0.7 N
r0.7 7
b0 "
b0 :
b10000 !
b10000 <
b10000 >
b0 9
b100 =
0#
1'
b111100 %
b111100 G
0J
b111100 K
r60 M
r0.1732352261264921 L
r0.5267647738735078 O
12
b0 4
r0.5267647738735078 8
r0.5267647738735078 I
r4.086524818927348 Q
b10010 P
b10010 5
#34765
02
#34805
r60 M
r0.06073522612649218 L
r0.5875 N
r0.5875 7
b111100 4
b1000 !
b1000 <
b1000 >
b11 =
b0 ;
1$
0&
#34806
0$
#34865
b11000010 %
b11000010 G
b11000010 K
r194.3881925707685 M
r0.004485226126492159 L
r0.53125 N
r0.53125 7
b100 !
b100 <
b100 >
b10 =
b1111000 4
1$
#34866
0$
#35059
b111100 %
b111100 G
1J
b111100 K
r60 M
r0.02363977387350791 L
r0.5031249999999999 N
r0.5031249999999999 7
b100111010 4
b10 !
b10 <
b10 >
b1 =
1$
#35060
0$
#35119
b1011011 %
b1011011 G
b1011011 K
r91.03582204240161 M
r0.009577273873507819 L
r0.5171875 N
r0.5171875 7
b11 !
b11 <
b11 >
b0 =
b10 9
b10 ;
b101110110 4
1$
1&
#35120
0$
#35210
b111010001 4
1#
0'
b11 "
b11 :
b11 9
b11 ;
1$
#35211
0$
#36725
r0.7 N
r0.7 7
b0 "
b0 :
b10000 !
b10000 <
b10000 >
b0 9
b100 =
0#
1'
b111100 %
b111100 G
0J
b111100 K
r60 M
r0.1969736259093614 L
r0.5030263740906386 O
12
b0 4
r0.5030263740906386 8
r0.5030263740906386 I
r4.313553975534423 Q
b10011 P
b10011 5
#36745
02
#36785
r60 M
r0.08447362590936147 L
r0.5875 N
r0.5875 7
b1000 !
b1000 <
b1000 >
b11 =
b0 ;
b111100 4
1$
0&
#36786
0$
#36845
r60 M
r0.02822362590936145 L
r0.53125 N
r0.53125 7
b1111000 4
b100 !
b100 <
b100 >
b10 =
1$
#36846
0$
#36905
b11111010 %
b11111010 G
b11111010 K
r250 M
r0.001 L
r0.5031249999999999 N
r0.5031249999999999 7
b10 !
b10 <
b10 >
b1 =
b10110100 4
1$
#36906
0$
#37155
b111110 %
b111110 G
1J
b111110 K
r62.43790185594028 M
r0.01396387409063859 L
r0.4890625 N
r0.4890625 7
b110101110 4
b1 !
b1 <
b1 >
b0 =
1$
#37156
0$
#37217
1#
0'
b1 "
b1 :
b1 9
b1 ;
b111101100 4
1$
1&
#37218
0$
